<svg width="73" height="73" viewBox="0 0 73 73" fill="none" xmlns="http://www.w3.org/2000/svg">
<rect x="36.0625" width="51" height="51" transform="rotate(45 36.0625 0)" fill="#FFCC33"/>
<mask id="mask0" mask-type="alpha" maskUnits="userSpaceOnUse" x="22" y="24" width="29" height="25">
<path fill-rule="evenodd" clip-rule="evenodd" d="M22 24.9995H50.3208V48.9543H22V24.9995Z" fill="white"/>
</mask>
<g mask="url(#mask0)">
<path fill-rule="evenodd" clip-rule="evenodd" d="M43.5484 44.6852H42.1614C41.29 43.4605 40.8542 42.7482 40.2997 41.8786L41.4887 41.2066C41.9237 41.9181 42.3594 42.5901 42.8347 43.3016C43.7061 41.9576 44.4191 40.6532 45.3309 38.9936L46.5184 39.6649C45.3698 41.7205 44.6964 42.8668 43.5484 44.6852ZM43.2704 47.6103C46.7964 47.6103 48.9346 45.4757 48.9346 41.9181C48.9346 38.3605 46.7964 36.2266 43.2704 36.2266C39.7452 36.2266 37.607 38.3605 37.607 41.9181C37.607 45.4757 39.7452 47.6103 43.2704 47.6103ZM43.2704 48.9543C38.9537 48.9543 36.2199 46.2275 36.2199 41.9181C36.2199 37.5699 38.9537 34.8819 43.2704 34.8819C47.6282 34.8819 50.321 37.5699 50.321 41.9181C50.321 46.2663 47.6282 48.9543 43.2704 48.9543ZM34.0421 29.664L35.3881 29.1896C37.329 34.2889 37.2101 34.0122 37.6855 35.3167C37.2894 35.6336 36.9329 35.9894 36.616 36.384C35.903 34.368 35.1108 32.2729 34.0421 29.664ZM28.6148 29.1896C29.8031 32.2334 30.9122 35.0795 31.9024 37.9645C32.8934 37.8466 33.8433 37.807 34.7543 37.807H35.705C35.5465 38.1233 35.3881 38.479 35.1504 39.1906H34.7543C33.8433 39.1906 33.0511 39.2301 32.3381 39.2696C32.6154 40.0997 32.8934 40.9306 33.17 41.76L31.8628 42.2343C30.5557 38.1635 29.0909 34.1308 27.2681 29.664L28.6148 29.1896ZM46.0035 29.5849C43.4296 27.5294 39.3491 26.3442 34.7543 26.3442C30.2395 26.3442 26.1597 27.4899 23.5059 29.5849C24.7727 32.9054 26.1194 36.0282 27.5454 38.9139C28.2194 38.6767 28.6948 38.5581 29.0909 38.4395L29.5655 39.7045C28.5356 39.9416 27.6642 40.1788 26.8727 40.4562C24.9707 36.7002 23.3467 32.9449 22 29.1896C24.8915 26.5412 29.6454 24.9995 34.7543 24.9995C39.9432 24.9995 44.6568 26.5412 47.5094 29.1896C46.8749 30.9296 46.2808 32.431 45.6866 33.8153C45.2905 33.6967 44.8555 33.6169 44.4191 33.5781C45.0133 32.1148 45.5678 30.811 46.0035 29.5849Z" fill="black"/>
</g>
</svg>
