<svg width="73" height="73" viewBox="0 0 73 73" fill="none" xmlns="http://www.w3.org/2000/svg">
<rect x="36.5" width="51" height="51" transform="rotate(45 36.5 0)" fill="#FFCC33"/>
<path fill-rule="evenodd" clip-rule="evenodd" d="M36.3311 26V35.8375H26V37.127H36.3311V47H37.6689V37.127H48V35.8375H37.6689V26H36.3311Z" fill="black"/>
</svg>
