{
    "key": "group_5f74928ee6f93",
    "title": "Stock integration Settings",
    "fields": [
        {
            "key": "field_5ffbfd1b81a7d",
            "label": "Integrations",
            "name": "stock_integrations",
            "type": "repeater",
            "instructions": "",
            "required": 0,
            "conditional_logic": 0,
            "wrapper": {
                "width": "",
                "class": "",
                "id": ""
            },
            "acfe_permissions": "",
            "acfe_repeater_stylised_button": 1,
            "collapsed": "field_5f7492a3ac861",
            "min": 0,
            "max": 0,
            "layout": "block",
            "button_label": "Add Integration",
            "sub_fields": [
                {
                    "key": "field_5f7492a3ac861",
                    "label": "Type of integration",
                    "name": "type",
                    "type": "select",
                    "instructions": "",
                    "required": 0,
                    "conditional_logic": 0,
                    "wrapper": {
                        "width": "",
                        "class": "",
                        "id": ""
                    },
                    "acfe_permissions": "",
                    "choices": {
                        "wordpress": "WordPress",
                        "fastback": "FastBack",
                        "carflow": "CarFlow",
                        "renaultmotors": "Renault Motors"
                    },
                    "default_value": false,
                    "allow_null": 0,
                    "multiple": 0,
                    "ui": 0,
                    "return_format": "value",
                    "ajax": 0,
                    "placeholder": ""
                },
                {
                    "key": "field_5f7493a0ac862",
                    "label": "Fastback URL",
                    "name": "fastback_url",
                    "type": "url",
                    "instructions": "",
                    "required": 0,
                    "conditional_logic": [
                        [
                            {
                                "field": "field_5f7492a3ac861",
                                "operator": "==",
                                "value": "fastback"
                            }
                        ]
                    ],
                    "wrapper": {
                        "width": "",
                        "class": "",
                        "id": ""
                    },
                    "acfe_permissions": "",
                    "default_value": "",
                    "placeholder": ""
                },
                {
                    "key": "field_5f8fead8a2933",
                    "label": "Implementation",
                    "name": "carflow_implementation",
                    "type": "select",
                    "instructions": "First Save this field before syncing.",
                    "required": 0,
                    "conditional_logic": [
                        [
                            {
                                "field": "field_5f7492a3ac861",
                                "operator": "==",
                                "value": "carflow"
                            }
                        ]
                    ],
                    "wrapper": {
                        "width": "",
                        "class": "",
                        "id": ""
                    },
                    "acfe_permissions": "",
                    "choices": {
                        "plugin": "Plugin",
                        "xml": "XML"
                    },
                    "default_value": false,
                    "allow_null": 0,
                    "multiple": 0,
                    "ui": 0,
                    "return_format": "value",
                    "ajax": 0,
                    "placeholder": ""
                },
                {
                    "key": "field_5f912e922fe5f",
                    "label": "Concession Integration IDs",
                    "name": "concessions",
                    "type": "repeater",
                    "instructions": "",
                    "required": 0,
                    "conditional_logic": [
                        [
                            {
                                "field": "field_5f8fead8a2933",
                                "operator": "!=",
                                "value": "plugin"
                            },
                            {
                                "field": "field_5f7492a3ac861",
                                "operator": "!=",
                                "value": "renaultmotors"
                            }
                        ]
                    ],
                    "wrapper": {
                        "width": "",
                        "class": "",
                        "id": ""
                    },
                    "acfe_permissions": "",
                    "acfe_repeater_stylised_button": 1,
                    "collapsed": "",
                    "min": 0,
                    "max": 0,
                    "layout": "table",
                    "button_label": "Add Concession ID",
                    "sub_fields": [
                        {
                            "key": "field_5f912ea62fe60",
                            "label": "Concession",
                            "name": "concession",
                            "type": "post_object",
                            "instructions": "",
                            "required": 0,
                            "conditional_logic": 0,
                            "wrapper": {
                                "width": "",
                                "class": "",
                                "id": ""
                            },
                            "acfe_permissions": "",
                            "post_type": [
                                "concession"
                            ],
                            "taxonomy": "",
                            "allow_null": 0,
                            "multiple": 0,
                            "return_format": "object",
                            "save_custom": 0,
                            "save_post_status": "publish",
                            "acfe_bidirectional": {
                                "acfe_bidirectional_enabled": "0"
                            },
                            "ui": 1
                        },
                        {
                            "key": "field_5f912ec62fe61",
                            "label": "Integration ID",
                            "name": "integration_id",
                            "type": "text",
                            "instructions": "",
                            "required": 0,
                            "conditional_logic": 0,
                            "wrapper": {
                                "width": "",
                                "class": "",
                                "id": ""
                            },
                            "acfe_permissions": "",
                            "default_value": "",
                            "placeholder": "",
                            "prepend": "",
                            "append": "",
                            "maxlength": ""
                        }
                    ]
                },
                {
                    "key": "field_5f858c5efe3dd",
                    "label": "Carflow Stock Function Code",
                    "name": "carflow_function_code",
                    "type": "text",
                    "instructions": "First Save this field before syncing.",
                    "required": 0,
                    "conditional_logic": [
                        [
                            {
                                "field": "field_5f8fead8a2933",
                                "operator": "==",
                                "value": "plugin"
                            }
                        ]
                    ],
                    "wrapper": {
                        "width": "",
                        "class": "",
                        "id": ""
                    },
                    "acfe_permissions": "",
                    "default_value": "",
                    "placeholder": "",
                    "prepend": "",
                    "append": "",
                    "maxlength": ""
                },
                {
                    "key": "field_5fae8140b6108",
                    "label": "Languages",
                    "name": "languages",
                    "type": "checkbox",
                    "instructions": "",
                    "required": 0,
                    "conditional_logic": [
                        [
                            {
                                "field": "field_5f8fead8a2933",
                                "operator": "==",
                                "value": "xml"
                            }
                        ]
                    ],
                    "wrapper": {
                        "width": "",
                        "class": "",
                        "id": ""
                    },
                    "acfe_permissions": "",
                    "choices": {
                        "nl-be": "NL",
                        "fr-be": "FR"
                    },
                    "allow_custom": 0,
                    "default_value": [],
                    "layout": "horizontal",
                    "toggle": 0,
                    "return_format": "value",
                    "save_custom": 0
                }
            ]
        },
        {
            "key": "field_5f7493c6ac863",
            "label": "Initial sync",
            "name": "stock_integration_sync_now",
            "type": "acfe_button",
            "instructions": "",
            "required": 0,
            "conditional_logic": [
                [
                    {
                        "field": "field_5f7492a3ac861",
                        "operator": "!=",
                        "value": "wordpress"
                    }
                ]
            ],
            "wrapper": {
                "width": "",
                "class": "",
                "id": ""
            },
            "acfe_permissions": "",
            "button_value": "Initial Sync",
            "button_type": "button",
            "button_class": "button button-secondary",
            "button_id": "",
            "button_before": "",
            "button_after": "",
            "button_ajax": 1
        },
        {
            "key": "field_5f75ac84fc347",
            "label": "Remove stock",
            "name": "remove_stock",
            "type": "acfe_button",
            "instructions": "ATTENTION !!! This removes all stock cars permanently",
            "required": 0,
            "conditional_logic": 0,
            "wrapper": {
                "width": "",
                "class": "",
                "id": ""
            },
            "acfe_permissions": "",
            "button_value": "Remove stock cars",
            "button_type": "button",
            "button_class": "button button-secondary",
            "button_id": "",
            "button_before": "",
            "button_after": "",
            "button_ajax": 1
        }
    ],
    "location": [
        [
            {
                "param": "options_page",
                "operator": "==",
                "value": "dealership-settings"
            }
        ]
    ],
    "menu_order": 1,
    "position": "normal",
    "style": "default",
    "label_placement": "left",
    "instruction_placement": "label",
    "hide_on_screen": "",
    "active": true,
    "description": "",
    "acfe_display_title": "",
    "acfe_autosync": [
        "json"
    ],
    "acfe_permissions": "",
    "acfe_form": 0,
    "acfe_meta": {
        "acfcloneindex": {
            "acfe_meta_key": "",
            "acfe_meta_value": ""
        }
    },
    "acfe_note": "",
    "modified": 1610355754
}