<?xml version="1.0" encoding="UTF-8" standalone="no"?>
<svg
   xmlns:dc="http://purl.org/dc/elements/1.1/"
   xmlns:cc="http://creativecommons.org/ns#"
   xmlns:rdf="http://www.w3.org/1999/02/22-rdf-syntax-ns#"
   xmlns:svg="http://www.w3.org/2000/svg"
   xmlns="http://www.w3.org/2000/svg"
   xmlns:sodipodi="http://sodipodi.sourceforge.net/DTD/sodipodi-0.dtd"
   xmlns:inkscape="http://www.inkscape.org/namespaces/inkscape"
   inkscape:version="1.0 (4035a4fb49, 2020-05-01)"
   sodipodi:docname="electric.svg"
   width="250"
   height="250"
   viewBox="0 0 66.145833 66.145833"
   version="1.1"
   id="svg186">
  <sodipodi:namedview
     inkscape:current-layer="svg186"
     inkscape:window-maximized="0"
     inkscape:window-y="0"
     inkscape:window-x="1920"
     inkscape:cy="110.11636"
     inkscape:cx="71.368233"
     inkscape:zoom="2.5484128"
     showgrid="false"
     id="namedview202"
     inkscape:window-height="1080"
     inkscape:window-width="1920"
     inkscape:pageshadow="2"
     inkscape:pageopacity="0"
     guidetolerance="10"
     gridtolerance="10"
     objecttolerance="10"
     borderopacity="1"
     bordercolor="#666666"
     pagecolor="#ffffff" />
  <defs
     id="defs180" />
  <metadata
     id="metadata183">
    <rdf:RDF>
      <cc:Work
         rdf:about="">
        <dc:format>image/svg+xml</dc:format>
        <dc:type
           rdf:resource="http://purl.org/dc/dcmitype/StillImage" />
        <dc:title />
      </cc:Work>
    </rdf:RDF>
  </metadata>
  <g
     transform="matrix(1,0,0,-1.0003258,0,66.021974)"
     id="layer1">
    <g
       transform="matrix(0.6664426,0,0,0.6664426,47.201558,51.400291)"
       style="display:inline"
       id="g153">
      <path
         transform="translate(-21.0547,-76.865298)"
         d="M 0,0 C 27.209,0 49.264,22.058 49.264,49.264 49.264,76.474 27.209,98.528 0,98.528 -27.209,98.528 -49.264,76.474 -49.264,49.264 -49.264,22.058 -27.209,0 0,0"
         style="display:inline;opacity:1;fill:#d0dbe2;fill-opacity:1;fill-rule:nonzero;stroke:none"
         id="path22" />
      <path
         d="M 0,0 V -5.106 H 10.304 V -8.379 H 0 V -15.7 h 10.304 v -3.273 H 0 v -5.103 h -10.303 c -7.995,0 -13.196,3.949 -13.773,10.401 h -13.773 c -6.257,0 -10.303,-3.371 -10.303,-8.474 0,-4.529 3.179,-7.418 10.016,-9.247 l 5.491,-1.445 c 8.569,-2.214 12.133,-5.682 12.133,-11.748 0,-6.452 -4.526,-10.4 -11.748,-10.4 h -5.491 v 3.466 h 5.973 c 4.813,0 7.799,2.601 7.799,6.934 0,4.142 -2.793,6.74 -8.764,8.185 l -5.49,1.349 c -8.954,2.214 -13.288,6.355 -13.288,12.906 0,6.932 5.681,11.846 13.672,11.846 h 13.773 C -23.499,-3.952 -18.201,0 -10.303,0 Z m -20.705,-12.038 c 0,-5.586 3.757,-8.764 10.402,-8.764 h 6.932 v 17.525 h -6.932 c -6.645,0 -10.402,-3.176 -10.402,-8.761"
         style="fill:#2b2b2a;fill-opacity:1;fill-rule:nonzero;stroke:none"
         id="path26" />
    </g>
  </g>
</svg>
