<svg width="26" height="30" viewBox="0 0 26 30" fill="none" xmlns="http://www.w3.org/2000/svg">
<path fill-rule="evenodd" clip-rule="evenodd" d="M8.70716 25.7487H17.2928V24.385H8.70716V25.7487ZM8.70716 22.861H17.2928V21.4973H8.70716V22.861ZM8.70716 20.0134H17.2928V18.6497H8.70716V20.0134ZM7.20872 28.6364H18.7913V15.7219H7.20872V28.6364ZM5.79128 30H20.2087V14.3583H5.79128V30ZM20.2492 1.36364H5.75078V7.13904H4.33333V0H21.6667V7.13904H20.2492V1.36364ZM23.1246 8.62299C25.0685 8.62299 26 9.54545 26 11.4706V20.0134H21.6667V18.6497H24.5826V11.4706C24.5826 10.4278 24.1776 9.98663 23.1246 9.98663H2.87539C1.82243 9.98663 1.41745 10.4278 1.41745 11.4706V18.6497H4.33333V20.0134H0V11.4706C0 9.54545 0.931464 8.62299 2.87539 8.62299H23.1246Z" fill="#1F2532"/>
</svg>
