<?xml version="1.0" encoding="UTF-8" standalone="no"?>
<svg
   xmlns:dc="http://purl.org/dc/elements/1.1/"
   xmlns:cc="http://creativecommons.org/ns#"
   xmlns:rdf="http://www.w3.org/1999/02/22-rdf-syntax-ns#"
   xmlns:svg="http://www.w3.org/2000/svg"
   xmlns="http://www.w3.org/2000/svg"
   viewBox="0 0 30 27"
   width="30"
   height="27"
   version="1.1"
   id="svg908">
  <defs
     id="defs912" />
  <path
     fill="#1F2532"
     fill-rule="evenodd"
     d="M16.555 13.445c-2.019-1.344-3.027-3.361-3.027-5.966C13.528 3.025 16.89 0 21.765 0 26.639 0 30 3.067 30 7.479s-3.361 7.479-8.235 7.479a8.65 8.65 0 0 1-2.017-.21 30.57 30.57 0 0 1-3.235 2.9l-.968-1.135c1.388-1.093 2.564-2.101 3.699-3.32 1.049.252 1.638.336 2.52.336 4.076 0 6.764-2.395 6.764-6.05s-2.688-6.05-6.763-6.05C17.647 1.429 15 3.824 15 7.479c0 2.143.797 3.74 2.521 5a3.522 3.522 0 0 1-.966.966zm-9.076-1.512c-1.723 0-3.024 1.302-3.024 3.067 0 1.765 1.301 3.067 3.024 3.067s3.025-1.302 3.025-3.067c0-1.765-1.302-3.067-3.025-3.067zM1.471 26.975H0v-.925c0-4.033 1.597-6.596 4.581-7.563C3.571 17.69 2.983 16.43 2.983 15c0-2.563 1.931-4.496 4.496-4.496 2.562 0 4.496 1.933 4.496 4.496 0 1.429-.588 2.647-1.597 3.487 3.024.967 4.622 3.53 4.622 7.563v.925h-1.472v-.883c0-4.285-2.1-6.596-6.049-6.596-3.825 0-6.008 2.395-6.008 6.596v.883z"
     id="path906"
     style="fill:#fffff8;fill-opacity:1" />
</svg>
