<svg width="13" height="13" viewBox="0 0 13 13" fill="none" xmlns="http://www.w3.org/2000/svg">
<path fill-rule="evenodd" clip-rule="evenodd" d="M0.207597 12.3531H2.60295C2.71747 12.3531 2.81055 12.2601 2.81055 12.1457V4.11176C2.81055 3.99734 2.71747 3.90435 2.60295 3.90435H0.207597C0.0930766 3.90435 0 3.99734 0 4.11176V12.1457C0 12.2601 0.0930766 12.3531 0.207597 12.3531ZM12.9477 7.50832V12.1457C12.9477 12.2601 12.8551 12.3531 12.7401 12.3531H10.3438C10.2293 12.3531 10.1362 12.2601 10.1362 12.1457V7.83243C10.1362 6.69781 9.73015 5.92286 8.71224 5.92286C7.93523 5.92286 7.47396 6.44436 7.27001 6.94944C7.1961 7.13042 7.17693 7.38113 7.17693 7.63413V12.1452C7.17693 12.2601 7.08386 12.3531 6.96934 12.3531H4.57353C4.45855 12.3531 4.36547 12.2601 4.36593 12.1452C4.37141 10.997 4.39604 5.42416 4.37095 4.1145C4.36912 3.99826 4.46266 3.90435 4.57855 3.90435H6.96934C7.08386 3.90435 7.17693 3.99734 7.17693 4.11176V5.10142C7.17146 5.11099 7.1637 5.12011 7.15823 5.12923H7.17693V5.10142C7.55107 4.52704 8.2172 3.70605 9.71099 3.70605C11.5611 3.70605 12.9477 4.91361 12.9477 7.50832Z" fill="#1F2532"/>
<path fill-rule="evenodd" clip-rule="evenodd" d="M3.08278 1.54435C3.08278 2.39728 2.39258 3.08824 1.54116 3.08824C0.690203 3.08824 0 2.39728 0 1.54435C0 0.691424 0.690203 0 1.54116 0C2.39258 0 3.08278 0.691424 3.08278 1.54435Z" fill="#1F2532"/>
</svg>
