<svg width="15" height="13" viewBox="0 0 15 13" fill="none" xmlns="http://www.w3.org/2000/svg">
<path fill-rule="evenodd" clip-rule="evenodd" d="M12.8403 2.57846C13.4372 2.21996 13.8964 1.65301 14.1116 0.976484C13.5536 1.30828 12.9351 1.54962 12.2762 1.67942C11.7482 1.11612 10.9967 0.764648 10.1653 0.764648C8.56834 0.764648 7.27377 2.06151 7.27377 3.66067C7.27377 3.88796 7.29958 4.1085 7.34839 4.32034C4.94579 4.20009 2.81557 3.04736 1.38916 1.29452C1.14062 1.72297 0.997842 2.21996 0.997842 2.75068C0.997842 3.75507 1.5081 4.64203 2.28372 5.16094C1.80993 5.14633 1.36419 5.01513 0.974279 4.79851V4.83504C0.974279 6.23782 1.97122 7.40853 3.29328 7.67459C3.0512 7.74033 2.79481 7.77686 2.53141 7.77686C2.34571 7.77686 2.16394 7.75803 1.98777 7.72404C2.35553 8.87481 3.42316 9.71147 4.68828 9.73563C3.69947 10.5122 2.45287 10.9752 1.09714 10.9752C0.864318 10.9752 0.634297 10.9609 0.408203 10.9347C1.68762 11.7557 3.20745 12.2352 4.84088 12.2352C10.1586 12.2352 13.0669 7.82349 13.0669 3.99612C13.0669 3.8711 13.0636 3.74608 13.0588 3.62106C13.6226 3.2134 14.1124 2.70348 14.5009 2.12248C13.9822 2.35285 13.4249 2.5085 12.8403 2.57846Z" fill="white"/>
</svg>
